<svg version="1.1" id="Capa_1" xmlns="http://www.w3.org/2000/svg" xmlns:xlink="http://www.w3.org/1999/xlink" x="0px" y="0px"
	 viewBox="0 0 1024 350" enable-background="new 0 0 1024 350" xml:space="preserve">
<g>
	<defs>
		<rect id="SVGID_1_" x="0" y="0" width="1024" height="350"/>
	</defs>
	<clipPath id="SVGID_2_">
		<use xlink:href="#SVGID_1_"  overflow="visible"/>
	</clipPath>
	<g clip-path="url(#SVGID_2_)">
		<path fill="#BD5D71" d="M1186,332.2c-73.8,15.4-152.3,20.7-232.9,14.1c-152.4-12.4-290-65.2-399.1-144.7l0.1,0
			C445.1,122.4,307.7,69.8,155.6,57.4c-117.8-9.6-230.8,6-331.7,41.7l16.8-205.6L1185.5,3.2l29.3,2.4L1186,332.2z"/>
		<linearGradient id="SVGID_3_" gradientUnits="userSpaceOnUse" x1="-176.236" y1="118.6021" x2="1212.231" y2="118.6021">
			<stop  offset="0" style="stop-color:#EEEBEC"/>
			<stop  offset="7.475805e-02" style="stop-color:#EDE5DF"/>
			<stop  offset="0.1745" style="stop-color:#ECE0D5"/>
			<stop  offset="0.2809" style="stop-color:#ECDED2"/>
			<stop  offset="0.6685" style="stop-color:#F1DDDB"/>
			<stop  offset="0.8876" style="stop-color:#F1DDDB"/>
			<stop  offset="1" style="stop-color:#ECDED2"/>
		</linearGradient>
		<path fill="url(#SVGID_3_)" d="M1190.7,312.4c-73.5,17.1-151.8,24.1-232.6,19.3c-152.7-9-291.4-58.7-402.2-135.7l0.1,0
			C445.3,119.3,306.8,69.8,154.4,60.8c-118-7-230.6,11.2-330.7,49.1L-164.1-96l1347,79.5l29.4,1.7L1190.7,312.4z"/>
		<path fill="#B8B1AF" d="M1192.6,295.7c-73.3,17.9-151.5,25.8-232.3,21.9c-152.7-7.3-292.1-55.5-403.7-131.3l0.1,0
			C445.1,110.8,306,62.8,153.6,55.5C35.5,49.8-76.9,69.3-176.5,108.3l9.9-206l1347.8,64.6l29.4,1.4L1192.6,295.7z"/>
		<linearGradient id="SVGID_4_" gradientUnits="userSpaceOnUse" x1="-176.4859" y1="97.9798" x2="1207.0416" y2="97.9798">
			<stop  offset="0" style="stop-color:#EEEBEC"/>
			<stop  offset="7.475805e-02" style="stop-color:#EDE5DF"/>
			<stop  offset="0.1745" style="stop-color:#ECE0D5"/>
			<stop  offset="0.2809" style="stop-color:#ECDED2"/>
			<stop  offset="0.6685" style="stop-color:#F1DDDB"/>
			<stop  offset="0.8876" style="stop-color:#ECDED2"/>
			<stop  offset="1" style="stop-color:#F1DDDB"/>
		</linearGradient>
		<path fill="url(#SVGID_4_)" d="M1196.4,265.8c-72.8,19.5-150.9,29.2-231.8,27.1c-152.9-3.9-293.2-49-406.5-122.2l0.1,0
			C445,97.6,304.9,52.8,152.4,48.9C34.2,45.9-77.8,67.8-176.5,109l5.3-206.2l1348.9,34.5L1207-62L1196.4,265.8z"/>
		<g>
			<defs>
				<path id="SVGID_5_" d="M1211.1,236.3c-72.3,21.4-150.1,33-231,33c-152.9,0-294.4-41.5-409.5-111.8l0.1,0
					C455.6,87.4,314.4,46.1,161.8,46.1c-118.2,0-229.6,24.8-327.2,68.5V-91.7h1349.3h29.4L1211.1,236.3z"/>
			</defs>
			<clipPath id="SVGID_6_">
				<use xlink:href="#SVGID_5_"  overflow="visible"/>
			</clipPath>
		</g>
		<g opacity="0.78">
			<defs>
				<path id="SVGID_7_" opacity="0.78" d="M1211.1,236.3c-72.3,21.4-150.1,33-231,33c-152.9,0-294.4-41.5-409.5-111.8l0.1,0
					C455.6,87.4,314.4,46.1,161.8,46.1c-118.2,0-229.6,24.8-327.2,68.5V-91.7h1349.3h29.4L1211.1,236.3z"/>
			</defs>
			<clipPath id="SVGID_8_">
				<use xlink:href="#SVGID_7_"  overflow="visible"/>
			</clipPath>
			<g transform="matrix(1 0 0 1 1.220703e-04 3.051758e-05)" clip-path="url(#SVGID_8_)">
				

							<image overflow="visible" enable-background="new    " width="4752" height="3168" xlink:href="<?php echo get_template_directory_uri();?>/assets/images/pexels-photo-220059.jpeg"  transform="matrix(-0.4395 0 0 0.4395 2055.1667 44.1476)">
				</image>
			</g>
		</g>
		<g>
			<path fill="#BD5D71" d="M904.4,230.6c-143.4,4.6-277.2-30-387.3-92.4l0.1,0C407.3,76,273.6,41.5,130.6,46.2
				c-17.8,0.6-35.5,1.8-52.9,3.5c18.1-1.2,36.4-1.9,54.9-1.9c143.1,0.2,275.5,39,383.3,104.9l-0.1,0
				c107.9,66.1,240.6,105.1,384,105.3c75.9,0.1,148.9-10.7,216.7-30.7l0.3-33.6C1050.6,215.3,979.1,228.2,904.4,230.6z"/>
		</g>
	</g>
</g>
</svg>
